NAME: ali535
TYPE: TSP
COMMENT: 535 Airports around the globe (Padberg/Rinaldi)
DIMENSION: 535
EDGE_WEIGHT_TYPE: GEO
DISPLAY_DATA_TYPE: COORD_DISPLAY
NODE_COORD_SECTION

*START*
0A  36.49  7.49
1B  57.06  9.51
2C  30.22  48.14
3D  5.15 -3.56
4E  34.59 -106.37
5F  57.12 -2.12
6G  16.45 -99.45
7H  5.36 -0.10
8I  28.56 -13.36
9J  8.59  38.48
EOF

H,D,I,A,B,F,C,J,G,E

		
