409154 435528
409151 435683
409277 435420
409260 435538
409240 435695
409213 435897
409199 435982
409178 436078
409174 436171
409147 436256
409469 435389
409378 435463
409378 435563
409351 435734
409328 435891
409275 435982
409289 436065
409272 436188
409208 436263
409754 435326
409609 435201
409565 435307
409577 435510
409515 435614
409478 435707
409442 435810
409442 435913
409408 436075
409344 436201
409398 436213
409638 435143
409683 435349
409670 435514
409620 435615
409688 435618
409624 435752
409570 435942
409541 436090
409512 436236
409216 435826
409158 435820
408777 434870
408731 434657
408808 434639
408840 435022
408932 434976
408897 434650
409050 434674
409033 434769
408906 434723
409262 434873
409090 434982
409020 435056
409262 435017
409210 435093
409109 435153
409192 435244
409298 435127
409302 435225
409264 435295
409452 434831
409553 435074
409434 435030
409517 434818
409539 434954
409038 435235
409167 435416
408778 434739
409822 435466
409811 435545
409765 435617
409812 435857
409792 435978
409837 436155
409711 436281
409969 435509
409944 435714
410041 435866
409946 436015
410015 436193
410067 435592
410073 436039
410113 436329
410204 436314
409645 436119
410120 436189
409875 435755
410180 436398
410244 436276
410224 436222
410435 436784
409573 436533
409575 436677
409553 436813
409546 436882
409701 436391
409691 436539
409680 436697
409667 436825
409657 436892
409858 436418
409795 436554
409788 436708
409768 436873
409900 436600
409863 436728
409923 436735
409874 436894
410006 436607
410003 436738
410006 436804
409960 436901
410014 436903
409816 437011
410120 436627
410099 436799
410072 436904
410234 436518
410205 436634
410213 436728
410212 436795
410320 436562
410324 436701
410107 437014
410201 436904
410140 436494
409026 436332
408906 436537
408865 436634
408849 436707
408791 436841
409016 436511
408946 436666
408921 436738
408872 436787
408903 436834
409160 436346
409102 436513
409007 436747
408951 436887
409261 436338
409213 436540
409150 436607
409114 436740
409065 436786
409057 436848
409174 436708
409136 436838
409322 436406
409255 436694
409213 436836
409372 436561
409286 436828
409355 436788
409482 436380
409456 436520
409442 436668
409429 436834
408514 436845
408597 436868
408644 436892
408796 436835
408888 436863
408951 436887
409610 434773
409638 434867
409684 434946
409830 435210
409738 434678
409700 434754
409732 434890
409718 435043
409810 435094
409892 435208
409968 435327
409819 434672
409812 434774
409823 434877
409798 434991
409939 435089
409972 435164
409923 434767
409920 434854
409892 434941
409971 435014
410079 435087
410064 435263
409833 434956
410157 435130
409962 434875
410042 434928
410123 434968
410197 435045
410307 434939
410389 434885
410230 434688
410071 434703
410047 434778
410113 434847
410179 435225
410209 435297
410244 435175
410298 435298
410294 435141
410347 435267
410359 435086
410430 435251
410429 435043
410511 435237
410492 434950
410545 435076
410604 435208
410637 435315
410556 434954
410607 435053
410650 435170
410618 434776
410656 435029
410705 435132
410721 435245
410684 435340
410660 434732
410737 434792
410744 435073
410808 435074
410830 435132
410707 434687
410780 434673
410780 434836
410826 434878
410894 434903
410939 434936
410964 434773
410816 435249
410481 434658
410651 434905
410783 434971
410920 435029
411034 435304
410556 434848
410853 434804
410958 434862
411037 434936
410220 435613
410169 435417
410228 435388
410252 435543
410289 435663
410348 436049
410301 435384
410325 435510
410345 435646
410373 435785
410394 435919
410417 436035
410439 436137
410466 436253
410395 436240
410482 436373
410371 435374
410394 435496
410416 435631
410437 435739
410468 435817
410498 435901
410488 436025
410507 436128
410529 436244
410547 436346
410430 435369
410453 435478
410479 435620
410502 435734
410551 436010
410570 436117
410591 436231
410606 436337
410556 435600
410559 435512
410580 435727
410597 435874
410623 435997
410646 436100
410663 436219
410681 436312
410593 435427
410622 435569
410647 435717
410675 435867
410695 435964
410704 436034
410718 436100
410735 436203
410684 435564
410709 435710
410735 435854
410763 435977
410778 436090
410797 436186
410746 435470
410735 435556
410771 435700
410789 435850
410812 435963
410837 436079
410771 435417
410805 435484
410834 435710
410847 435782
410883 436197
410888 435542
410885 435668
410895 435848
410901 435964
410946 435666
410955 435841
410961 435942
411004 435920
411002 435664
410744 436290
408381 434917
408392 434637
408570 434746
408508 434788